{
    "TotalRows": 10,
    "TotalPage": 1,
    "Page": 1,
    "DisplayRows": 10,
    "ResultList": [{
        "AllTasksID": "1",
        "Title": "Add User",
        "DueDate": "Mar 23, 2017",
        "Priority": "Medium",
        "Description":"Add Raymond Jones",
        "Status": "Not Started"
    },
    {
        "AllTasksID": "2",
        "Title": "Add Role",
        "DueDate": "Feb 21, 2017",
        "Priority": "Medium",
        "Description":"Add Role Super A ...",
        "Status": "In Progress"
    },
    {
        "AllTasksID": "3",
        "Title": "Move Product",
        "DueDate": "Feb 21, 2017",
        "Priority": "Urgent",
        "Description":"Move Product #3312345 ...",
        "Status": "In Progress"
    },
    {
        "AllTasksID": "4",
        "Title": "Move Product",
        "DueDate": "Feb 18, 2017",
        "Priority": "Urgent",
        "Description":"Move Product #1312346 ...",
        "Status": "Completed"
    },
    {
        "AllTasksID": "5",
        "Title": "Add Role",
        "DueDate": "Feb 15, 2017",
        "Priority": "High",
        "Description":"Add New JoneTransport Rate ...",
        "Status": "Completed"
    }]
}
