[{
    "id": "1",
    "ProductNumber": "1223423",
    "ProductCategory": "Groceries",
    "ProductName": "HERSHEY'S Nuggets Chocolates",
    "UnitNumber": "20",
    "UnitValue": "400"
},
{
    "id": "2",
    "ProductNumber": "232453453",
    "ProductCategory": "Books",
    "ProductName": "Olympus Has Valent",
    "UnitNumber": "20",
    "UnitValue": "600"
},{
    "id": "3",
    "ProductNumber": "4353542",
    "ProductCategory": "Electronic",
    "ProductName": "WO Electronics Paperback",
    "UnitNumber": "30",
    "UnitValue": "300"
},{
    "id": "4",
    "ProductNumber": "64554634",
    "ProductCategory": "Beverages",
    "ProductName": "IZZE Sparkling",
    "UnitNumber": "10",
    "UnitValue": "100"
}]
