{
    "DisplayRows": "10",
    "Page": "1",
    "ResultList": [{
        "LocationId": "1",
        "LocationCode": "133",
        "ZonaType":{
            "ZonaTypeID": "1",
            "ZonaTypeName": "FOO"
        },
        "ZoneAreas": {
            "ZoneAreasID": "2",
            "ZoneAreasName":"ZoneAreas"
        },
        "SKUType": {
            "SKUTypeID":"1",
            "SKUTypeName":"apa ga tau"
        },
        "IsActive": "true"
    }, {
        "LocationId": "2",
        "LocationCode": "154",
        "ZonaType":{
            "ZonaTypeID": "1",
            "ZonaTypeName": "FOO"
        },
        "ZoneAreas": {
            "ZoneAreasID": "2",
            "ZoneAreasName":"ZoneAreas"
        },
        "SKUType": {
            "SKUTypeID":"1",
            "SKUTypeName":"apa ga tau"
        },
        "IsActive": "true"
    }],
    "TotalPage": "1",
    "TotalRows": "1"
}
